{
    "homepage": "https://im.qq.com",
    "description": "I'm QQ - 每一天，乐在沟通",
    "version": "9.6.2.28755",
    "license": "Copyright © 1998 - 2021 Tencent. All Rights Reserved.",
    "url": "https://dldir1.qq.com/qqfile/qq/PCQQ9.6.2/QQ9.6.2.28755.exe#/dl.7z",
    "hash": "aff9c70e9e7f27408408b8bc54eb77ac0989b36e7a5538cdc0fb12b48e931daa",
    "shortcuts": [
        [
            "Bin\\QQScLauncher.exe",
            "QQ"
        ]
    ],
    "installer": {
        "script": [
            "Get-Item \"$dir\\*\" -Exclude .rsrc | Remove-Item",
            "Expand-7zipArchive \"$dir\\.rsrc\\2052\\MSI\\101\" \"Files\" -Destination \"$dir\\\" -Removal",
            "Move-Item \"$dir\\Files\\*\" \"$dir\"",
            "Expand-7zipArchive \"$dir\\.rsrc\\2052\\MSI\\102\" \"TXSSO\\TXSSOSetup.exe\" -Destination \"$dir\" -Removal",
            "Expand-7zipArchive \"$dir\\TXSSO\\TXSSOSetup.exe\" \"TXSSO\" -Destination \"$dir\\bin\" -Removal"
        ]
    },
    "post_install": "Echo \"$dir\\Files\" \"$dir\\.rsrc\" \"$dir\\TXSSO\" | Remove-Item -Recurse",
    "checkver": {
        "url": "https://im.qq.com/pcqq",
        "regex": "QQ([\\d.]+).exe"
    },
    "autoupdate": {
        "url": "https://dldir1.qq.com/qqfile/qq/PCQQ$majorVersion.$minorVersion.$patchVersion/QQ$majorVersion.$minorVersion.$patchVersion.$buildVersion.exe#/dl.7z"
    }
}
